src/cpu16/verilog/cpu_tb.vcd
$date
	Thu Mar 19 00:19:03 2026
$end
$version
	Icarus Verilog
$end
$timescale
	1ps
$end
$scope module cpu_tb $end
$var wire 16 ! alu_a [15:0] $end
$var wire 16 " alu_b [15:0] $end
$var wire 16 # alu_out [15:0] $end
$var wire 1 $ c_flag $end
$var wire 16 % ir [15:0] $end
$var wire 16 & mar [15:0] $end
$var wire 16 ' mdr [15:0] $end
$var wire 8 ( micro_pc [7:0] $end
$var wire 1 ) n_flag $end
$var wire 6 * opcode [5:0] $end
$var wire 16 + pc [15:0] $end
$var wire 16 , r0 [15:0] $end
$var wire 16 - r1 [15:0] $end
$var wire 16 . r2 [15:0] $end
$var wire 16 / r3 [15:0] $end
$var wire 16 0 r4 [15:0] $end
$var wire 16 1 r5 [15:0] $end
$var wire 16 2 r6 [15:0] $end
$var wire 16 3 r7 [15:0] $end
$var wire 3 4 rx [2:0] $end
$var wire 3 5 ry [2:0] $end
$var wire 3 6 state [2:0] $end
$var wire 1 7 v_flag $end
$var wire 1 8 z_flag $end
$var reg 1 9 clk $end
$var reg 1 : irq $end
$var reg 1 ; rst $end
$var reg 1 < trace_enable $end
$scope function enc $end
$upscope $end
$scope function opcode_name $end
$var reg 6 = op [5:0] $end
$upscope $end
$scope function state_name $end
$var reg 3 > s [2:0] $end
$upscope $end
$scope module dut $end
$var wire 1 ? carry_enable $end
$var wire 1 9 clk $end
$var wire 1 : irq $end
$var wire 24 @ microinstr [23:0] $end
$var wire 1 ; rst $end
$var wire 1 A tmi_we $end
$var wire 1 B sp_out $end
$var wire 1 C sp_inc $end
$var wire 1 D sp_dec $end
$var wire 1 E si_we $end
$var wire 3 F ry [2:0] $end
$var wire 3 G rx [2:0] $end
$var wire 1 H rse $end
$var wire 1 I ri_we $end
$var wire 4 J reg_ctrl [3:0] $end
$var wire 16 K ram_addr [15:0] $end
$var wire 1 L pc_inc $end
$var wire 6 M opcode [5:0] $end
$var wire 8 N next_micro_pc [7:0] $end
$var wire 1 O mi_we $end
$var wire 16 P mem_out [15:0] $end
$var wire 1 Q mai_we $end
$var wire 1 R iri_we $end
$var wire 1 S halt $end
$var wire 4 T flow_ctrl [3:0] $end
$var wire 1 U fi_we $end
$var wire 1 V done $end
$var wire 16 W data [15:0] $end
$var wire 16 X control [15:0] $end
$var wire 1 Y ci_we $end
$var wire 1 Z ca_ctrl $end
$var wire 3 [ bus_ctrl [2:0] $end
$var wire 1 \ bi_we $end
$var wire 4 ] alu_ctrl [3:0] $end
$var wire 1 ^ ai_we $end
$var parameter 16 _ ADD $end
$var parameter 16 ` AI $end
$var parameter 16 a ALU_NOP $end
$var parameter 16 b AND_OP $end
$var parameter 16 c BI $end
$var parameter 16 d BUS_NONE $end
$var parameter 16 e CA $end
$var parameter 16 f CA_NONE $end
$var parameter 16 g CE $end
$var parameter 16 h CI $end
$var parameter 16 i CO $end
$var parameter 16 j DEC $end
$var parameter 16 k DIV $end
$var parameter 16 l DONE $end
$var parameter 16 m FI $end
$var parameter 16 n FLOW_NONE $end
$var parameter 16 o HLT $end
$var parameter 16 p INC $end
$var parameter 16 q IRI $end
$var parameter 16 r IXO $end
$var parameter 16 s IYO $end
$var parameter 16 t MAI $end
$var parameter 16 u MI $end
$var parameter 16 v MO $end
$var parameter 16 w MUL $end
$var parameter 16 x NOT_OP $end
$var parameter 16 y OR_OP $end
$var parameter 16 z REG_NONE $end
$var parameter 16 { RI $end
$var parameter 16 | RO $end
$var parameter 16 } RSE $end
$var parameter 16 ~ SHL $end
$var parameter 16 !" SHR $end
$var parameter 16 "" SI $end
$var parameter 16 #" SO $end
$var parameter 16 $" SPD $end
$var parameter 16 %" SPI $end
$var parameter 16 &" SPO $end
$var parameter 16 '" SUB $end
$var parameter 16 (" TMI $end
$var parameter 16 )" TMO $end
$var parameter 16 *" XOR_OP $end
$var reg 16 +" alu_a [15:0] $end
$var reg 16 ," alu_b [15:0] $end
$var reg 16 -" alu_out [15:0] $end
$var reg 16 ." alu_result [15:0] $end
$var reg 1 /" c_flag $end
$var reg 1 0" carry_out $end
$var reg 16 1" ir [15:0] $end
$var reg 16 2" mar [15:0] $end
$var reg 16 3" mdr [15:0] $end
$var reg 8 4" micro_pc [7:0] $end
$var reg 1 5" n_flag $end
$var reg 1 6" overflow_out $end
$var reg 16 7" pc [15:0] $end
$var reg 3 8" reg_sel [2:0] $end
$var reg 3 9" state [2:0] $end
$var reg 1 :" v_flag $end
$var reg 1 ;" z_flag $end
$scope module memory $end
$var wire 16 <" addr [15:0] $end
$var wire 1 9 clk $end
$var wire 16 =" din [15:0] $end
$var wire 1 O we $end
$var reg 16 >" dout [15:0] $end
$upscope $end
$scope begin $ivl_for_loop0 $end
$var integer 32 ?" i [31:0] $end
$upscope $end
$scope begin $ivl_for_loop1 $end
$var integer 32 @" i [31:0] $end
$upscope $end
$scope begin $unm_blk_34 $end
$var reg 4 A" shift_amount [3:0] $end
$upscope $end
$scope begin $unm_blk_35 $end
$var reg 4 B" shift_amount [3:0] $end
$upscope $end
$upscope $end
$scope task assert_flag $end
$upscope $end
$scope task assert_mem $end
$upscope $end
$scope task assert_reg $end
$upscope $end
$scope task do_reset $end
$upscope $end
$scope task dump_mem $end
$scope begin $ivl_for_loop3 $end
$upscope $end
$upscope $end
$scope task dump_regs $end
$upscope $end
$scope task load_program $end
$scope begin $ivl_for_loop2 $end
$upscope $end
$upscope $end
$scope task run $end
$scope begin run_loop $end
$upscope $end
$upscope $end
$scope task test_add $end
$upscope $end
$scope task test_alu_reg_reg $end
$upscope $end
$scope task test_branch $end
$upscope $end
$scope task test_call_ret $end
$upscope $end
$scope task test_call_ret_short $end
$upscope $end
$scope task test_halt $end
$upscope $end
$scope task test_imm_alu $end
$upscope $end
$scope task test_jumps $end
$upscope $end
$scope task test_mem $end
$upscope $end
$scope task test_memory_ops $end
$upscope $end
$scope task test_mov $end
$upscope $end
$scope task test_not_inc_dec $end
$upscope $end
$scope task test_push_pop $end
$upscope $end
$scope task test_shifts $end
$upscope $end
$upscope $end
$enddefinitions $end
$comment Show the parameter values. $end
$dumpall
b11000000000 *"
b10 )"
b100000 ("
b1110000000 '"
b11000000000000 &"
b10000000000000 %"
b10100000000000 $"
b11 #"
b1001000 ""
b110000000 !"
b100000000 ~
b111000 }
b1 |
b11000 {
b0 z
b10110000000 y
b10000000 x
b10000000000 w
b110 v
b1010000 u
b101000 t
b101 s
b100 r
b1000000 q
b1000000000 p
b1100000000000 o
b0 n
b11100000000000 m
b1000000000000 l
b10010000000 k
b1010000000 j
b111 i
b110000 h
b100000000000 g
b0 f
b1000000000000000 e
b0 d
b10000 c
b10100000000 b
b0 a
b1000 `
b1100000000 _
$end
#0
$dumpvars
bx B"
bx A"
b0 @"
b100000000 ?"
bx >"
bx ="
bx <"
x;"
x:"
bx 9"
bx 8"
bx 7"
x6"
x5"
bx 4"
bx 3"
bx 2"
bx 1"
x0"
x/"
bx ."
bx -"
bx ,"
bx +"
x^
bx ]
x\
bx [
xZ
xY
bx X
bx W
xV
xU
bx T
xS
xR
xQ
bx P
xO
bx N
bx M
xL
bx K
bx J
xI
xH
bx G
bx F
xE
xD
xC
xB
xA
bx @
x?
bx >
bx =
0<
1;
0:
09
x8
x7
bx 6
bx 5
bx 4
bx 3
bx 2
bx 1
bx 0
bx /
bx .
bx -
bx ,
bx +
bx *
x)
bx (
bx '
bx &
bx %
x$
bx #
bx "
bx !
$end
#5000
b0 W
b0 ="
b0 [
0^
0\
0I
0A
0Q
0Y
0H
0R
0E
0O
b0 J
b0 ]
0L
1V
0S
0C
0D
0B
0U
b10 T
0?
0Z
b11111111 N
b1000000000000 X
b0 *
b0 M
b0 4
b0 G
b0 5
b0 F
b0 ."
06"
00"
b0 K
b0 <"
b0 6
b0 9"
b111111110001000000000000 @
b11111111 (
b11111111 4"
07
0:"
0$
0/"
0)
05"
08
0;"
b0 #
b0 -"
b0 8"
b0 %
b0 1"
b0 '
b0 3"
b0 &
b0 2"
b0 "
b0 ,"
b0 !
b0 +"
b0 2
b0 1
b0 0
b0 /
b0 .
b0 -
b0 ,
b1011111111111 3
b0 +
b0 7"
b111 @"
19
#10000
09
#15000
b0 P
b0 >"
b111 @"
19
#20000
0;
09
#25000
b1 6
b1 9"
19
#30000
09
#35000
b10 6
b10 9"
b1 +
b1 7"
19
#40000
09
#45000
0V
1S
b11 T
b1100000000000 X
b100 6
b100 9"
b111111110001100000000000 @
b0 (
b0 4"
19
#50000
09
#55000
b101 6
b101 9"
19
#60000
09
#65000
1V
0S
b10 T
b1000000000000 X
b0 6
b0 9"
b111111110001000000000000 @
b11111111 (
b11111111 4"
b0 +
b0 7"
b111 @"
1;
19
#70000
09
#75000
b1000110000000000 P
b1000110000000000 >"
b111 @"
19
#80000
09
#85000
b111 @"
19
#90000
0;
09
#95000
b1 6
b1 9"
19
#100000
09
#105000
b100011 *
b100011 M
b10 6
b10 9"
b1 +
b1 7"
b1000110000000000 %
b1000110000000000 1"
19
#110000
09
#115000
b1 K
b1 <"
b1 W
b1 ="
b111 [
1Q
b101 J
0V
b0 T
b11100001 N
b101111 X
b100 6
b100 9"
b111000010000000000101111 @
b100011 (
b100011 4"
19
#120000
09
#125000
b11 W
b11 ="
b110 [
1A
0Q
b100 J
1L
b1 T
b11100010 N
b100000100110 X
b11 P
b11 >"
b1 &
b1 2"
b111000100000100000100110 @
b11100001 (
b11100001 4"
19
#130000
09
#135000
b0 W
b0 ="
b100 [
0A
1H
b111 J
0L
b0 T
b11100011 N
b111100 X
b10 +
b10 7"
b11 '
b11 3"
b111000110000000000111100 @
b11100010 (
b11100010 4"
19
#140000
09
#145000
b11 W
b11 ="
b10 [
1I
0H
b11 J
b11111111 N
b11010 X
b111111110000000000011010 @
b11100011 (
b11100011 4"
19
#150000
09
#155000
b0 W
b0 ="
b0 [
0I
b0 J
1V
b10 T
b10 K
b10 <"
b1000000000000 X
b11 ,
b0 6
b0 9"
b111111110001000000000000 @
b11111111 (
b11111111 4"
19
#160000
09
#165000
b1000110010000000 P
b1000110010000000 >"
b1 6
b1 9"
b10 &
b10 2"
19
#170000
09
#175000
b1 4
b1 G
b10 6
b10 9"
b11 +
b11 7"
b1000110010000000 %
b1000110010000000 1"
19
#180000
09
#185000
b11 W
b11 ="
b11 K
b11 <"
b111 [
1Q
b101 J
0V
b0 T
b11100001 N
b101111 X
b100 6
b100 9"
b111000010000000000101111 @
b100011 (
b100011 4"
19
#190000
09
#195000
b100 W
b100 ="
b110 [
1A
0Q
b100 J
1L
b1 T
b11100010 N
b100000100110 X
b11 &
b11 2"
b100 P
b100 >"
b111000100000100000100110 @
b11100001 (
b11100001 4"
19
#200000
09
#205000
b1 W
b1 ="
b100 [
0A
1H
b111 J
0L
b0 T
b11100011 N
b111100 X
b100 +
b100 7"
b100 '
b100 3"
b111000110000000000111100 @
b11100010 (
b11100010 4"
19
#210000
09
#215000
b100 W
b100 ="
b10 [
1I
0H
b11 J
b11111111 N
b11010 X
b1 8"
b111111110000000000011010 @
b11100011 (
b11100011 4"
19
#220000
09
#225000
b0 W
b0 ="
b0 [
0I
b0 J
1V
b10 T
b100 K
b100 <"
b1000000000000 X
b100 -
b0 6
b0 9"
b111111110001000000000000 @
b11111111 (
b11111111 4"
19
#230000
09
#235000
b10100000010000 P
b10100000010000 >"
b1 6
b1 9"
b100 &
b100 2"
19
#240000
09
#245000
b1010 *
b1010 M
b0 4
b0 G
b1 5
b1 F
b10 6
b10 9"
b101 +
b101 7"
b10100000010000 %
b10100000010000 1"
19
#250000
09
#255000
b100 [
1H
b111 J
0V
b0 T
b1110001 N
b111100 X
b100 6
b100 9"
b11100010000000000111100 @
b1010 (
b1010 4"
19
#260000
09
#265000
b11 W
b11 ="
b1 [
1^
0H
b1 J
b1110010 N
b1001 X
b0 8"
b11100100000000000001001 @
b1110001 (
b1110001 4"
19
#270000
09
#275000
b1 W
b1 ="
b101 [
0^
1H
b111 J
b1110011 N
b111101 X
b11 !
b11 +"
b11100110000000000111101 @
b1110010 (
b1110010 4"
19
#280000
09
#285000
b100 W
b100 ="
b1 [
1\
0H
b10 J
b1110100 N
b10001 X
b1 8"
b11101000000000000010001 @
b1110011 (
b1110011 4"
19
#290000
09
#295000
b0 W
b0 ="
b111 ."
b0 [
0\
1E
b1001 J
b110 ]
1U
b111 T
b1110101 N
b11101101001000 X
b100 "
b100 ,"
b11101010011101101001000 @
b1110100 (
b1110100 4"
19
#300000
09
#305000
b0 ."
b100 [
1H
0E
b111 J
b0 ]
0U
b0 T
b1110110 N
b111100 X
b111 #
b111 -"
b11101100000000000111100 @
b1110101 (
b1110101 4"
19
#310000
09
#315000
b111 W
b111 ="
b11 [
1I
0H
b11 J
b11111111 N
b11011 X
b0 8"
b111111110000000000011011 @
b1110110 (
b1110110 4"
19
#320000
09
#325000
b0 W
b0 ="
b0 [
0I
b0 J
1V
b10 T
b101 K
b101 <"
b1000000000000 X
b111 ,
b0 6
b0 9"
b111111110001000000000000 @
b11111111 (
b11111111 4"
19
#330000
09
#335000
b0 P
b0 >"
b1 6
b1 9"
b101 &
b101 2"
19
#340000
09
#345000
b0 *
b0 M
b0 5
b0 F
b10 6
b10 9"
b110 +
b110 7"
b0 %
b0 1"
19
#350000
09
#355000
0V
1S
b11 T
b1100000000000 X
b100 6
b100 9"
b111111110001100000000000 @
b0 (
b0 4"
19
#360000
09
#365000
b101 6
b101 9"
19
#370000
09
#375000
1V
0S
b10 T
b0 K
b0 <"
b1000000000000 X
b0 6
b0 9"
b111111110001000000000000 @
b11111111 (
b11111111 4"
b0 #
b0 -"
b0 '
b0 3"
b0 &
b0 2"
b0 "
b0 ,"
b0 !
b0 +"
b0 -
b0 ,
b0 +
b0 7"
b111 @"
1;
19
#380000
09
#385000
b1000110000000000 P
b1000110000000000 >"
b111 @"
19
#390000
09
#395000
b111 @"
19
#400000
0;
09
#405000
b1 6
b1 9"
19
#410000
09
#415000
b100011 *
b100011 M
b10 6
b10 9"
b1 +
b1 7"
b1000110000000000 %
b1000110000000000 1"
19
#420000
09
#425000
b1 K
b1 <"
b1 W
b1 ="
b111 [
1Q
b101 J
0V
b0 T
b11100001 N
b101111 X
b100 6
b100 9"
b111000010000000000101111 @
b100011 (
b100011 4"
19
#430000
09
#435000
b1010101111001101 W
b1010101111001101 ="
b110 [
1A
0Q
b100 J
1L
b1 T
b11100010 N
b100000100110 X
b1 &
b1 2"
b1010101111001101 P
b1010101111001101 >"
b111000100000100000100110 @
b11100001 (
b11100001 4"
19
#440000
09
#445000
b0 W
b0 ="
b100 [
0A
1H
b111 J
0L
b0 T
b11100011 N
b111100 X
b10 +
b10 7"
b1010101111001101 '
b1010101111001101 3"
b111000110000000000111100 @
b11100010 (
b11100010 4"
19
#450000
09
#455000
b1010101111001101 W
b1010101111001101 ="
b10 [
1I
0H
b11 J
b11111111 N
b11010 X
b111111110000000000011010 @
b11100011 (
b11100011 4"
19
#460000
09
#465000
b0 W
b0 ="
b0 [
0I
b0 J
1V
b10 T
b10 K
b10 <"
b1000000000000 X
b1010101111001101 ,
b0 6
b0 9"
b111111110001000000000000 @
b11111111 (
b11111111 4"
19
#470000
09
#475000
b1001110000000000 P
b1001110000000000 >"
b1 6
b1 9"
b10 &
b10 2"
19
#480000
09
#485000
b100111 *
b100111 M
b10 6
b10 9"
b11 +
b11 7"
b1001110000000000 %
b1001110000000000 1"
19
#490000
09
#495000
b11 W
b11 ="
b11 K
b11 <"
b111 [
1Q
b101 J
0V
b0 T
b11111001 N
b101111 X
b100 6
b100 9"
b111110010000000000101111 @
b100111 (
b100111 4"
19
#500000
09
#505000
b100000000 W
b100000000 ="
b110 [
1A
0Q
b100 J
1L
b1 T
b11111010 N
b100000100110 X
b100000000 P
b100000000 >"
b11 &
b11 2"
b111110100000100000100110 @
b11111001 (
b11111001 4"
19
#510000
09
#515000
b100000000 K
b100000000 <"
b10 [
0A
1Q
b101 J
0L
b0 T
b11111011 N
b101010 X
b100 +
b100 7"
b100000000 '
b100000000 3"
b111110110000000000101010 @
b11111010 (
b11111010 4"
19
#520000
09
#525000
b0 W
b0 ="
b100 [
0Q
1H
b111 J
b11111100 N
b111100 X
bx P
bx >"
b100000000 &
b100000000 2"
b111111000000000000111100 @
b11111011 (
b11111011 4"
19
#530000
09
#535000
b1010101111001101 W
b1010101111001101 ="
b1 [
0H
1O
b1010 J
b11111111 N
b1010001 X
b111111110000000001010001 @
b11111100 (
b11111100 4"
19
#540000
09
#545000
b0 W
b0 ="
b0 [
0O
b0 J
1V
b10 T
b100 K
b100 <"
b1000000000000 X
b0 6
b0 9"
b111111110001000000000000 @
b11111111 (
b11111111 4"
19
#550000
09
#555000
b1001000100000000 P
b1001000100000000 >"
b1 6
b1 9"
b100 &
b100 2"
19
#560000
09
#565000
b100100 *
b100100 M
b10 4
b10 G
b10 6
b10 9"
b101 +
b101 7"
b1001000100000000 %
b1001000100000000 1"
19
#570000
09
#575000
b101 W
b101 ="
b101 K
b101 <"
b111 [
1Q
b101 J
0V
b0 T
b11100101 N
b101111 X
b100 6
b100 9"
b111001010000000000101111 @
b100100 (
b100100 4"
19
#580000
09
#585000
b100000000 W
b100000000 ="
b110 [
1A
0Q
b100 J
1L
b1 T
b11100110 N
b100000100110 X
b100000000 P
b100000000 >"
b101 &
b101 2"
b111001100000100000100110 @
b11100101 (
b11100101 4"
19
#590000
09
#595000
b100000000 K
b100000000 <"
b10 [
0A
1Q
b101 J
0L
b0 T
b11100111 N
b101010 X
b110 +
b110 7"
b111001110000000000101010 @
b11100110 (
b11100110 4"
19
#600000
09
#605000
b10 W
b10 ="
b100 [
0Q
1H
b111 J
b11101000 N
b111100 X
b1010101111001101 P
b1010101111001101 >"
b100000000 &
b100000000 2"
b111010000000000000111100 @
b11100111 (
b11100111 4"
19
#610000
09
#615000
b1010101111001101 W
b1010101111001101 ="
b110 [
1I
0H
b11 J
b11111111 N
b11110 X
b10 8"
b111111110000000000011110 @
b11101000 (
b11101000 4"
19
#620000
09
#625000
b0 W
b0 ="
b0 [
0I
b0 J
1V
b10 T
b110 K
b110 <"
b1000000000000 X
b1010101111001101 .
b0 6
b0 9"
b111111110001000000000000 @
b11111111 (
b11111111 4"
19
#630000
09
#635000
b0 P
b0 >"
b1 6
b1 9"
b110 &
b110 2"
19
#640000
09
#645000
b0 *
b0 M
b0 4
b0 G
b10 6
b10 9"
b111 +
b111 7"
b0 %
b0 1"
19
#650000
09
#655000
0V
1S
b11 T
b1100000000000 X
b100 6
b100 9"
b111111110001100000000000 @
b0 (
b0 4"
19
#660000
09
#665000
b101 6
b101 9"
19
#670000
09
#675000
1V
0S
b10 T
b0 K
b0 <"
b1000000000000 X
b0 6
b0 9"
b111111110001000000000000 @
b11111111 (
b11111111 4"
b0 8"
b0 '
b0 3"
b0 &
b0 2"
b0 .
b0 ,
b0 +
b0 7"
b111 @"
1;
19
#680000
09
#685000
b1000110000000000 P
b1000110000000000 >"
b111 @"
19
#690000
09
#695000
b111 @"
19
#700000
0;
09
#705000
b1 6
b1 9"
19
#710000
09
#715000
b100011 *
b100011 M
b10 6
b10 9"
b1 +
b1 7"
b1000110000000000 %
b1000110000000000 1"
19
#720000
09
#725000
b1 K
b1 <"
b1 W
b1 ="
b111 [
1Q
b101 J
0V
b0 T
b11100001 N
b101111 X
b100 6
b100 9"
b111000010000000000101111 @
b100011 (
b100011 4"
19
#730000
09
#735000
b11 W
b11 ="
b110 [
1A
0Q
b100 J
1L
b1 T
b11100010 N
b100000100110 X
b1 &
b1 2"
b11 P
b11 >"
b111000100000100000100110 @
b11100001 (
b11100001 4"
19
#740000
09
#745000
b0 W
b0 ="
b100 [
0A
1H
b111 J
0L
b0 T
b11100011 N
b111100 X
b10 +
b10 7"
b11 '
b11 3"
b111000110000000000111100 @
b11100010 (
b11100010 4"
19
#750000
09
#755000
b11 W
b11 ="
b10 [
1I
0H
b11 J
b11111111 N
b11010 X
b111111110000000000011010 @
b11100011 (
b11100011 4"
19
#760000
09
#765000
b0 W
b0 ="
b0 [
0I
b0 J
1V
b10 T
b10 K
b10 <"
b1000000000000 X
b11 ,
b0 6
b0 9"
b111111110001000000000000 @
b11111111 (
b11111111 4"
19
#770000
09
#775000
b1100000000000 P
b1100000000000 >"
b1 6
b1 9"
b10 &
b10 2"
19
#780000
09
#785000
b110 *
b110 M
b10 6
b10 9"
b11 +
b11 7"
b1100000000000 %
b1100000000000 1"
19
#790000
09
#795000
b100 [
1H
b111 J
0V
b0 T
b1010110 N
b111100 X
b100 6
b100 9"
b10101100000000000111100 @
b110 (
b110 4"
19
#800000
09
#805000
b11 W
b11 ="
b1 [
1^
0H
b1 J
b1010111 N
b1001 X
b10101110000000000001001 @
b1010110 (
b1010110 4"
19
#810000
09
#815000
b0 W
b0 ="
b10 ."
b0 [
0^
1E
b1001 J
b101 ]
1U
b111 T
b1011000 N
b11101011001000 X
b11 !
b11 +"
b10110000011101011001000 @
b1010111 (
b1010111 4"
19
#820000
09
#825000
b10 W
b10 ="
b0 ."
b11 [
1I
0E
b11 J
b0 ]
0U
b0 T
b11111111 N
b11011 X
b10 #
b10 -"
b111111110000000000011011 @
b1011000 (
b1011000 4"
19
#830000
09
#835000
b0 W
b0 ="
b0 [
0I
b0 J
1V
b10 T
b11 K
b11 <"
b1000000000000 X
b10 ,
b0 6
b0 9"
b111111110001000000000000 @
b11111111 (
b11111111 4"
19
#840000
09
#845000
b110010000000000 P
b110010000000000 >"
b1 6
b1 9"
b11 &
b11 2"
19
#850000
09
#855000
b11001 *
b11001 M
b10 6
b10 9"
b100 +
b100 7"
b110010000000000 %
b110010000000000 1"
19
#860000
09
#865000
b100 W
b100 ="
b100 K
b100 <"
b111 [
1Q
b101 J
0V
b0 T
b11001111 N
b101111 X
b100 6
b100 9"
b110011110000000000101111 @
b11001 (
b11001 4"
19
#870000
09
#875000
b10 W
b10 ="
b110 [
0Q
1Y
b110 J
b11111111 N
b110110 X
b100 &
b100 2"
b10 P
b10 >"
b111111110000000000110110 @
b11001111 (
b11001111 4"
19
#880000
09
#885000
b0 W
b0 ="
b0 [
0Y
b0 J
1V
b10 T
b10 K
b10 <"
b1000000000000 X
b10 +
b10 7"
b0 6
b0 9"
b111111110001000000000000 @
b11111111 (
b11111111 4"
19
#890000
09
#895000
b1100000000000 P
b1100000000000 >"
b1 6
b1 9"
b10 &
b10 2"
19
#900000
09
#905000
b110 *
b110 M
b10 6
b10 9"
b11 +
b11 7"
b1100000000000 %
b1100000000000 1"
19
#910000
09
#915000
b100 [
1H
b111 J
0V
b0 T
b1010110 N
b111100 X
b100 6
b100 9"
b10101100000000000111100 @
b110 (
b110 4"
19
#920000
09
#925000
b10 W
b10 ="
b1 [
1^
0H
b1 J
b1010111 N
b1001 X
b10101110000000000001001 @
b1010110 (
b1010110 4"
19
#930000
09
#935000
b0 W
b0 ="
b1 ."
b0 [
0^
1E
b1001 J
b101 ]
1U
b111 T
b1011000 N
b11101011001000 X
b10 !
b10 +"
b10110000011101011001000 @
b1010111 (
b1010111 4"
19
#940000
09
#945000
b1 W
b1 ="
b0 ."
b11 [
1I
0E
b11 J
b0 ]
0U
b0 T
b11111111 N
b11011 X
b1 #
b1 -"
b111111110000000000011011 @
b1011000 (
b1011000 4"
19
#950000
09
#955000
b0 W
b0 ="
b0 [
0I
b0 J
1V
b10 T
b11 K
b11 <"
b1000000000000 X
b1 ,
b0 6
b0 9"
b111111110001000000000000 @
b11111111 (
b11111111 4"
19
#960000
09
#965000
b110010000000000 P
b110010000000000 >"
b1 6
b1 9"
b11 &
b11 2"
19
#970000
09
#975000
b11001 *
b11001 M
b10 6
b10 9"
b100 +
b100 7"
b110010000000000 %
b110010000000000 1"
19
#980000
09
#985000
b100 W
b100 ="
b100 K
b100 <"
b111 [
1Q
b101 J
0V
b0 T
b11001111 N
b101111 X
b100 6
b100 9"
b110011110000000000101111 @
b11001 (
b11001 4"
19
#990000
09
#995000
b10 W
b10 ="
b110 [
0Q
1Y
b110 J
b11111111 N
b110110 X
b100 &
b100 2"
b10 P
b10 >"
b111111110000000000110110 @
b11001111 (
b11001111 4"
19
#1000000
09
#1005000
b0 W
b0 ="
b0 [
0Y
b0 J
1V
b10 T
b10 K
b10 <"
b1000000000000 X
b10 +
b10 7"
b0 6
b0 9"
b111111110001000000000000 @
b11111111 (
b11111111 4"
19
#1010000
09
#1015000
b1100000000000 P
b1100000000000 >"
b1 6
b1 9"
b10 &
b10 2"
19
#1020000
09
#1025000
b110 *
b110 M
b10 6
b10 9"
b11 +
b11 7"
b1100000000000 %
b1100000000000 1"
19
#1030000
09
#1035000
b100 [
1H
b111 J
0V
b0 T
b1010110 N
b111100 X
b100 6
b100 9"
b10101100000000000111100 @
b110 (
b110 4"
19
#1040000
09
#1045000
b1 W
b1 ="
b1 [
1^
0H
b1 J
b1010111 N
b1001 X
b10101110000000000001001 @
b1010110 (
b1010110 4"
19
#1050000
09
#1055000
b0 W
b0 ="
b0 [
0^
1E
b1001 J
b101 ]
1U
b111 T
b1011000 N
b11101011001000 X
b1 !
b1 +"
b10110000011101011001000 @
b1010111 (
b1010111 4"
19
#1060000
09
#1065000
b11 [
1I
0E
b11 J
b0 ]
0U
b0 T
b11111111 N
b11011 X
18
1;"
b0 #
b0 -"
b111111110000000000011011 @
b1011000 (
b1011000 4"
19
#1070000
09
#1075000
b0 [
0I
b0 J
1V
b10 T
b11 K
b11 <"
b1000000000000 X
b0 ,
b0 6
b0 9"
b111111110001000000000000 @
b11111111 (
b11111111 4"
19
#1080000
09
#1085000
b110010000000000 P
b110010000000000 >"
b1 6
b1 9"
b11 &
b11 2"
19
#1090000
09
#1095000
b11001 *
b11001 M
b10 6
b10 9"
b100 +
b100 7"
b110010000000000 %
b110010000000000 1"
19
#1100000
09
#1105000
b100 K
b100 <"
b0 6
b0 9"
19
#1110000
09
#1115000
b10 P
b10 >"
b1 6
b1 9"
b100 &
b100 2"
19
#1120000
09
#1125000
b0 *
b0 M
b10 6
b10 9"
b101 +
b101 7"
b10 %
b10 1"
19
#1130000
09
#1135000
0V
1S
b11 T
b1100000000000 X
b100 6
b100 9"
b111111110001100000000000 @
b0 (
b0 4"
19
#1140000
09
#1145000
b101 6
b101 9"
19
#1150000
09
#1155000
1V
0S
b10 T
b0 K
b0 <"
b1000000000000 X
b0 6
b0 9"
b111111110001000000000000 @
b11111111 (
b11111111 4"
08
0;"
b0 %
b0 1"
b0 '
b0 3"
b0 &
b0 2"
b0 !
b0 +"
b0 +
b0 7"
b111 @"
1;
19
#1160000
09
#1165000
b1000110000000000 P
b1000110000000000 >"
b111 @"
19
#1170000
09
#1175000
b111 @"
19
#1180000
0;
09
#1185000
b1 6
b1 9"
19
#1190000
09
#1195000
b100011 *
b100011 M
b10 6
b10 9"
b1 +
b1 7"
b1000110000000000 %
b1000110000000000 1"
19
#1200000
09
#1205000
b1 K
b1 <"
b1 W
b1 ="
b111 [
1Q
b101 J
0V
b0 T
b11100001 N
b101111 X
b100 6
b100 9"
b111000010000000000101111 @
b100011 (
b100011 4"
19
#1210000
09
#1215000
b0 W
b0 ="
b110 [
1A
0Q
b100 J
1L
b1 T
b11100010 N
b100000100110 X
b1 &
b1 2"
b0 P
b0 >"
b111000100000100000100110 @
b11100001 (
b11100001 4"
19
#1220000
09
#1225000
b100 [
0A
1H
b111 J
0L
b0 T
b11100011 N
b111100 X
b10 +
b10 7"
b111000110000000000111100 @
b11100010 (
b11100010 4"
19
#1230000
09
#1235000
b10 [
1I
0H
b11 J
b11111111 N
b11010 X
b111111110000000000011010 @
b11100011 (
b11100011 4"
19
#1240000
09
#1245000
b0 [
0I
b0 J
1V
b10 T
b10 K
b10 <"
b1000000000000 X
b0 6
b0 9"
b111111110001000000000000 @
b11111111 (
b11111111 4"
19
#1250000
09
#1255000
b101100000000000 P
b101100000000000 >"
b1 6
b1 9"
b10 &
b10 2"
19
#1260000
09
#1265000
b10110 *
b10110 M
b10 6
b10 9"
b11 +
b11 7"
b101100000000000 %
b101100000000000 1"
19
#1270000
09
#1275000
b11 W
b11 ="
b111 [
1^
b1 J
0V
b0 T
b11001000 N
b1111 X
b100 6
b100 9"
b110010000000000000001111 @
b10110 (
b10110 4"
19
#1280000
09
#1285000
b0 W
b0 ="
b100 ."
b0 [
0^
1E
b1001 J
b100 ]
b11001001 N
b1001001000 X
b11 !
b11 +"
b110010010000001001001000 @
b11001000 (
b11001000 4"
19
#1290000
09
#1295000
b0 ."
0E
b0 J
b0 ]
1D
b101 T
b11001010 N
b10100000000000 X
b100 #
b100 -"
b110010100010100000000000 @
b11001001 (
b11001001 4"
19
#1300000
09
#1305000
b1011111111110 K
b1011111111110 <"
b1011111111110 W
b1011111111110 ="
1Q
b101 J
0D
1B
b110 T
b11001011 N
b11000000101000 X
b1011111111110 3
b110010110011000000101000 @
b11001010 (
b11001010 4"
19
#1310000
09
#1315000
b100 W
b100 ="
b11 [
0Q
1O
b1010 J
0B
b0 T
b11001100 N
b1010011 X
b1011111111110 &
b1011111111110 2"
bx P
bx >"
b110011000000000001010011 @
b11001011 (
b11001011 4"
19
#1320000
09
#1325000
b11 W
b11 ="
b11 K
b11 <"
b111 [
1Q
0O
b101 J
b11001111 N
b101111 X
b110011110000000000101111 @
b11001100 (
b11001100 4"
19
#1330000
09
#1335000
b110 W
b110 ="
b110 [
0Q
1Y
b110 J
b11111111 N
b110110 X
b11 &
b11 2"
b110 P
b110 >"
b111111110000000000110110 @
b11001111 (
b11001111 4"
19
#1340000
09
